…
      age == "514" ~ "5-14",
      age == "014" ~ "0-14",
      age == "1524" ~ "15-24",
      age == "2534" ~ "25-34",
      age == "3544" ~ "35-44",
      age == "4554" ~ "45-54",
      age == "5564" ~ "55-64",
      age == "65" ~ "65",
      age == "u" ~ NA_character_
      )
  ) %>% 
  spread(key = year, value = counts) 
```

    ## # A tibble: 3,919 x 32
    ##    iso2  gender age   `1980` `1981` `1982` `1983` `1984` `1985` `1986` `1987`
    ##    <chr> <chr>  <chr>  <dbl>  <dbl>  <dbl>  <dbl>  <dbl>  <dbl>  <dbl>  <dbl>
    ##  1 AD    f      0-14      NA     NA     NA     NA     NA     NA     NA     NA
    ##  2 AD    f      0-4       NA     NA     NA     NA     NA     NA     NA     NA
    ##  3 AD    f      15-24     NA     NA     NA     NA     NA     NA     NA     NA
    ##  4 AD    f      25-34     NA     NA     NA     NA     NA     NA     NA     NA
    ##  5 AD    f      35-44     NA     NA     NA     NA     NA     NA     NA     NA
    ##  6 AD    f      45-54     NA     NA     NA     NA     NA     NA     NA     NA
    ##  7 AD    f      5-14      NA     NA     NA     NA     NA     NA     NA     NA
    ##  8 AD    f      55-64     NA     NA     NA     NA     NA     NA     NA     NA
    ##  9 AD    f      65        NA     NA     NA     NA     NA     NA     NA     NA
    ## 10 AD    f      <NA>      NA     NA     NA     NA     NA     NA     NA     NA
    ## # ... with 3,909 more rows, and 21 more variables: 1988 <dbl>, 1989 <dbl>,
    ## #   1990 <dbl>, 1991 <dbl>, 1992 <dbl>, 1993 <dbl>, 1994 <dbl>, 1995 <dbl>,
    ## #   1996 <dbl>, 1997 <dbl>, 1998 <dbl>, 1999 <dbl>, 2000 <dbl>, 2001 <dbl>,
    ## #   2002 <dbl>, 2003 <dbl>, 2004 <dbl>, 2005 <dbl>, 2006 <dbl>, 2007 <dbl>,
    ## #   2008 <dbl>
