…
3.  Generate a tidy data frame (tibble) containing the variables `name`,
    `culture`, `gender`, `id`, `born`, `alive` for all characters.

``` r
#your code here
map_df(got_chars, `[`, c("name", "culture", "gender", "id", "born", "alive"))
```

    ## # A tibble: 30 x 6
    ##    name               culture    gender    id born                         alive
    ##    <chr>              <chr>      <chr>  <int> <chr>                        <lgl>
    ##  1 Theon Greyjoy      "Ironborn" Male    1022 "In 278 AC or 279 AC, at Py~ TRUE 
    ##  2 Tyrion Lannister   ""         Male    1052 "In 273 AC, at Casterly Roc~ TRUE 
    ##  3 Victarion Greyjoy  "Ironborn" Male    1074 "In 268 AC or before, at Py~ TRUE 
    ##  4 Will               ""         Male    1109 ""                           FALSE
    ##  5 Areo Hotah         "Norvoshi" Male    1166 "In 257 AC or before, at No~ TRUE 
    ##  6 Chett              ""         Male    1267 "At Hag's Mire"              FALSE
    ##  7 Cressen            ""         Male    1295 "In 219 AC or 220 AC"        FALSE
    ##  8 Arianne Martell    "Dornish"  Female   130 "In 276 AC, at Sunspear"     TRUE 
    ##  9 Daenerys Targaryen "Valyrian" Female  1303 "In 284 AC, at Dragonstone"  TRUE 
    ## 10 Davos Seaworth     "Westeros" Male    1319 "In 260 AC or before, at Ki~ TRUE 
    ## # ... with 20 more rows
…
